…
``` r
# rounded to 3 significant figures/
```

35.7% of flights in 2013 were 2 hours late or more.

Create a column that contains combined airline and flight number (e.g.,
“UA5401”).

``` r
airline_num <- mutate(flights, flightnum = paste0(flights$carrier, flights$flight))
airline_num # This column is carrier + flight number
```

    ## # A tibble: 336,776 x 20
    ##     year month   day dep_time sched_dep_time dep_delay arr_time sched_arr_time
    ##    <int> <int> <int>    <int>          <int>     <dbl>    <int>          <int>
    ##  1  2013     1     1      517            515         2      830            819
    ##  2  2013     1     1      533            529         4      850            830
    ##  3  2013     1     1      542            540         2      923            850
    ##  4  2013     1     1      544            545        -1     1004           1022
    ##  5  2013     1     1      554            600        -6      812            837
    ##  6  2013     1     1      554            558        -4      740            728
    ##  7  2013     1     1      555            600        -5      913            854
    ##  8  2013     1     1      557            600        -3      709            723
    ##  9  2013     1     1      557            600        -3      838            846
    ## 10  2013     1     1      558            600        -2      753            745
    ## # ... with 336,766 more rows, and 12 more variables: arr_delay <dbl>,
    ## #   carrier <chr>, flight <int>, tailnum <chr>, origin <chr>, dest <chr>,
    ## #   air_time <dbl>, distance <dbl>, hour <dbl>, minute <dbl>, time_hour <dttm>,
    ## #   flightnum <chr>
…
``` r
num_flight_tot <- flights %>%
  group_by(carrier, tailnum)%>%
  summarise(numflights = n())
```

    ## `summarise()` regrouping output by 'carrier' (override with `.groups` argument)

``` r
num_flight_tot # This column is the number of flights each tail number has flown for entire set of data
```

    ## # A tibble: 4,067 x 3
    ## # Groups:   carrier [16]
    ##    carrier tailnum numflights
    ##    <chr>   <chr>        <int>
    ##  1 9E      N146PQ           8
    ##  2 9E      N153PQ           5
    ##  3 9E      N161PQ           3
    ##  4 9E      N162PQ           2
    ##  5 9E      N170PQ           7
    ##  6 9E      N176PQ           7
    ##  7 9E      N181PQ           4
    ##  8 9E      N187PQ           5
    ##  9 9E      N197PQ           2
    ## 10 9E      N200PQ           7
    ## # ... with 4,057 more rows
